{
    "records": [
        {
            "attributes": {
                "type": "CollaborationGroup",
                "referenceId": "CollaborationGroupRef1"
            },
            "Name": "Parking",
            "CollaborationType": "Private"
        }
    ]
}