{
    "records": [
        {
            "attributes": {
                "type": "Group",
                "referenceId": "GroupRef1"
            },
            "Type": "Organization"
        },
        {
            "attributes": {
                "type": "Group",
                "referenceId": "GroupRef2"
            },
            "Name": "Parking",
            "Type": "Regular"
        },
        {
            "attributes": {
                "type": "Group",
                "referenceId": "GroupRef3"
            },
            "Name": "Parking",
            "Type": "Regular"
        },
        {
            "attributes": {
                "type": "Group",
                "referenceId": "GroupRef4"
            },
            "Name": "ParkingError",
            "Type": "Regular"
        },
        {
            "attributes": {
                "type": "Group",
                "referenceId": "GroupRef5"
            },
            "Name": "ParkingError",
            "Type": "Regular"
        },
        {
            "attributes": {
                "type": "Group",
                "referenceId": "GroupRef6"
            },
            "Name": "Parking",
            "Type": "Regular"
        },
        {
            "attributes": {
                "type": "Group",
                "referenceId": "GroupRef7"
            },
            "Name": "ParkingError",
            "Type": "Regular"
        },
        {
            "attributes": {
                "type": "Group",
                "referenceId": "GroupRef8"
            },
            "Name": "Parking",
            "Type": "Regular"
        }
    ]
}